…
We now have a nice `tibble` with all the words, and can now take a look at which words are more common, like so:

```r
a %>% count(word, sort = TRUE)
#> # A tibble: 2,413 x 2
#>    word              n
#>    <chr>         <int>
#>  1 precipitation   251
#>  2 flood           196
#>  3 data            176
#>  4 model           134
#>  5 fig             121
#>  6 discharge       109
#>  7 italy           106
#>  8 station         105
#>  9 datasets         98
#> 10 chym             97
#> # … with 2,403 more rows
```
…
